Assignment 1: Census Data Quality for Policy Decisions – Ye Zhang - MUSA 5080 Portfolio
…
moderate_confidence <- decision_framework %>%
  filter(reliability_category == "Moderate Confidence") %>%
  select(NAME)

low_confidence <- decision_framework %>%
  filter(reliability_category == "Low Confidence") %>%
  select(NAME)

print("High Confidence Counties:")

[1] "High Confidence Counties:"

print(high_confidence)

# A tibble: 42 × 1
   NAME        
   <chr>       
 1 Alameda     
 2 Butte       
 3 Calaveras   
 4 Contra Costa
 5 El Dorado   
 6 Fresno      
 7 Humboldt    
 8 Imperial    
 9 Kern        
10 Kings       
# ℹ 32 more rows
…
